{
    "BigPictureFolder": "Big",
    "FullPictureFolder": "Full",
    "ListName": "SheepskinProductsForMan",
    "LittlePictureFolder": "Icon",
    "Pictures": [{
        "FileName": "1.jpg",
        "Width": 600,
        "Height": 800
    }, {
        "FileName": "2.jpg",
        "Width": 600,
        "Height": 800
    }, {
        "FileName": "3.jpg",
        "Width": 600,
        "Height": 800
    }, {
        "FileName": "4.jpg",
        "Width": 600,
        "Height": 800
    }, {
        "FileName": "5.jpg",
        "Width": 600,
        "Height": 800
    }, {
        "FileName": "6.jpg",
        "Width": 600,
        "Height": 800
    }, {
        "FileName": "7.jpg",
        "Width": 600,
        "Height": 800
    }, {
        "FileName": "8.jpg",
        "Width": 600,
        "Height": 800
    }, {
        "FileName": "9.jpg",
        "Width": 600,
        "Height": 800
    }, {
        "FileName": "10.jpg",
        "Width": 600,
        "Height": 800
    }, {
        "FileName": "11.jpg",
        "Width": 600,
        "Height": 800
    }, {
        "FileName": "12.jpg",
        "Width": 600,
        "Height": 800
    }, {
        "FileName": "13.jpg",
        "Width": 600,
        "Height": 800
    }, {
        "FileName": "14.jpg",
        "Width": 600,
        "Height": 800
    }, {
        "FileName": "15.jpg",
        "Width": 600,
        "Height": 800
    }, {
        "FileName": "16.jpg",
        "Width": 600,
        "Height": 800
    }, {
        "FileName": "17.jpg",
        "Width": 600,
        "Height": 800
    }, {
        "FileName": "18.jpg",
        "Width": 600,
        "Height": 800
    }, {
        "FileName": "19.jpg",
        "Width": 600,
        "Height": 800
    }, {
        "FileName": "20.jpg",
        "Width": 600,
        "Height": 800
    }, {
        "FileName": "21.jpg",
        "Width": 600,
        "Height": 800
    }, {
        "FileName": "22.jpg",
        "Width": 600,
        "Height": 800
    }, {
        "FileName": "23.jpg",
        "Width": 450,
        "Height": 800
    }, {
        "FileName": "24.jpg",
        "Width": 450,
        "Height": 800
    }, {
        "FileName": "25.jpg",
        "Width": 450,
        "Height": 800
    }, {
        "FileName": "26.jpg",
        "Width": 450,
        "Height": 800
    }, {
        "FileName": "27.jpg",
        "Width": 450,
        "Height": 800
    }],
    "RootFolder": "https://cloclo15.cloud.mail.ru/weblink/thumb/xw1/FmqF/88SSTjMBp/SheepskinProductsForMan",
    "Title": "Мужские изделия из дубленочного сырья"
}