{
    "BigPictureFolder": "Big",
    "FullPictureFolder": "Full",
    "ListName": "SheepskinProductsForWoman",
    "LittlePictureFolder": "Big",
    "Pictures": [{
        "FileName": "1.jpg",
        "Width": 600,
        "Height": 800
    }, {
        "FileName": "2.jpg",
        "Width": 600,
        "Height": 800
    }, {
        "FileName": "3.jpg",
        "Width": 600,
        "Height": 800
    }, {
        "FileName": "4.jpg",
        "Width": 600,
        "Height": 800
    }, {
        "FileName": "5.jpg",
        "Width": 600,
        "Height": 800
    }, {
        "FileName": "6.jpg",
        "Width": 600,
        "Height": 800
    }, {
        "FileName": "7.jpg",
        "Width": 600,
        "Height": 800
    }, {
        "FileName": "8.jpg",
        "Width": 600,
        "Height": 800
    }, {
        "FileName": "9.jpg",
        "Width": 600,
        "Height": 800
    }, {
        "FileName": "10.jpg",
        "Width": 600,
        "Height": 800
    }, {
        "FileName": "11.jpg",
        "Width": 600,
        "Height": 800
    }, {
        "FileName": "12.jpg",
        "Width": 600,
        "Height": 800
    }, {
        "FileName": "13.jpg",
        "Width": 600,
        "Height": 800
    }, {
        "FileName": "14.jpg",
        "Width": 600,
        "Height": 800
    }, {
        "FileName": "15.jpg",
        "Width": 600,
        "Height": 800
    }, {
        "FileName": "16.jpg",
        "Width": 600,
        "Height": 800
    }, {
        "FileName": "17.jpg",
        "Width": 600,
        "Height": 800
    }, {
        "FileName": "18.jpg",
        "Width": 600,
        "Height": 800
    }, {
        "FileName": "19.jpg",
        "Width": 600,
        "Height": 800
    }, {
        "FileName": "20.jpg",
        "Width": 600,
        "Height": 800
    }, {
        "FileName": "21.jpg",
        "Width": 600,
        "Height": 800
    }, {
        "FileName": "22.jpg",
        "Width": 600,
        "Height": 800
    }, {
        "FileName": "23.jpg",
        "Width": 600,
        "Height": 800
    }, {
        "FileName": "24.jpg",
        "Width": 600,
        "Height": 800
    }, {
        "FileName": "25.jpg",
        "Width": 600,
        "Height": 800
    }, {
        "FileName": "26.jpg",
        "Width": 600,
        "Height": 800
    }, {
        "FileName": "27.jpg",
        "Width": 600,
        "Height": 800
    }, {
        "FileName": "28.jpg",
        "Width": 600,
        "Height": 800
    }, {
        "FileName": "29.jpg",
        "Width": 600,
        "Height": 800
    }, {
        "FileName": "30.jpg",
        "Width": 600,
        "Height": 800
    }, {
        "FileName": "31.jpg",
        "Width": 600,
        "Height": 800
    }, {
        "FileName": "32.jpg",
        "Width": 600,
        "Height": 800
    }, {
        "FileName": "33.jpg",
        "Width": 600,
        "Height": 800
    }, {
        "FileName": "34.jpg",
        "Width": 600,
        "Height": 800
    }, {
        "FileName": "35.jpg",
        "Width": 600,
        "Height": 800
    }, {
        "FileName": "36.jpg",
        "Width": 600,
        "Height": 800
    }, {
        "FileName": "37.jpg",
        "Width": 600,
        "Height": 800
    }, {
        "FileName": "38.jpg",
        "Width": 600,
        "Height": 800
    }, {
        "FileName": "39.jpg",
        "Width": 600,
        "Height": 800
    }, {
        "FileName": "40.jpg",
        "Width": 450,
        "Height": 800
    }, {
        "FileName": "41.jpg",
        "Width": 450,
        "Height": 800
    }, {
        "FileName": "42.jpg",
        "Width": 450,
        "Height": 800
    }, {
        "FileName": "43.jpg",
        "Width": 450,
        "Height": 800
    }, {
        "FileName": "44.jpg",
        "Width": 450,
        "Height": 800
    }, {
        "FileName": "45.jpg",
        "Width": 450,
        "Height": 800
    }, {
        "FileName": "46.jpg",
        "Width": 450,
        "Height": 800
    }, {
        "FileName": "47.jpg",
        "Width": 450,
        "Height": 800
    }, {
        "FileName": "48.jpg",
        "Width": 450,
        "Height": 800
    }, {
        "FileName": "49.jpg",
        "Width": 450,
        "Height": 800
    }, {
        "FileName": "50.jpg",
        "Width": 450,
        "Height": 800
    }],
    "RootFolder": "https://cloclo15.cloud.mail.ru/weblink/thumb/xw1/FmqF/88SSTjMBp/SheepskinProductsForWoman",
    "Title": "Женские изделия из дубленочного сырья"
}